Fecha,Numero,Dig. 1,Dig. 2,Dig. 3,Dig. 4,Dig. 5
1812,03604,0,3,6,0,4
1813,08553,0,8,5,5,3
1814,23892,2,3,8,9,2
1815,33466,3,3,4,6,6
1816,34503,3,4,5,0,3
1817,32026,3,2,0,2,6
1818,08705,0,8,7,0,5
1819,15389,1,5,3,8,9
1820,02457,0,2,4,5,7
1821,08364,0,8,3,6,4
1822,09311,0,9,3,1,1
1823,01879,0,1,8,7,9
1824,02124,0,2,1,2,4
1825,09275,0,9,2,7,5
1826,14544,1,4,5,4,4
1827,06835,0,6,8,3,5
1828,00523,0,0,5,2,3
1829,02127,0,2,1,2,7
1830,02652,0,2,6,5,2
1831,01490,0,1,4,9,0
1832,08318,0,8,3,1,8
1833,07589,0,7,5,8,9
1834,09703,0,9,7,0,3
1835,07175,0,7,1,7,5
1836,07102,0,7,1,0,2
1837,10998,1,0,9,9,8
1837,03616,0,3,6,1,6
1838,06094,0,6,0,9,4
1839,01833,0,1,8,3,3
1840,01660,0,1,6,6,0
1841,06585,0,6,5,8,5
1842,05228,0,5,2,2,8
1843,09975,0,9,9,7,5
1844,07312,0,7,3,1,2
1845,13046,1,3,0,4,6
1846,04457,0,4,4,5,7
1847,13656,1,3,6,5,6
1848,01474,0,1,4,7,4
1849,12724,1,2,7,2,4
1850,12223,1,2,2,2,3
1851,12105,1,2,1,0,5
1852,11528,1,1,5,2,8
1853,16673,1,6,6,7,3
1854,14938,1,4,9,3,8
1855,15406,1,5,4,0,6
1856,13094,1,3,0,9,4
1857,02147,0,2,1,4,7
1858,12085,1,2,0,8,5
1859,18400,1,8,4,0,0
1860,20563,2,0,5,6,3
1861,23033,2,3,0,3,3
1862,04036,0,4,0,3,6
1863,03224,0,3,2,2,4
1864,18968,1,8,9,6,8
1865,01603,0,1,6,0,3
1866,00615,0,0,6,1,5
1867,14985,1,4,9,8,5
1868,04385,0,4,3,8,5
1869,18875,1,8,8,7,5
1870,09914,0,9,9,1,4
1871,09457,0,9,4,5,7
1872,16374,1,6,3,7,4
1873,10014,1,0,0,1,4
1874,09452,0,9,4,5,2
1875,07932,0,7,9,3,2
1876,21690,2,1,6,9,0
1877,12797,1,2,7,9,7
1878,06157,0,6,1,5,7
1879,25018,2,5,0,1,8
1880,35999,3,5,9,9,9
1881,17057,1,7,0,5,7
1882,06679,0,6,6,7,9
1883,38608,3,8,6,0,8
1884,14292,1,4,2,9,2
1885,45488,4,5,4,8,8
1886,06695,0,6,6,9,5
1887,24566,2,4,5,6,6
1888,04211,0,4,2,1,1
1889,45400,4,5,4,0,0
1890,15020,1,5,0,2,0
1891,33558,3,3,5,5,8
1892,40297,4,0,2,9,7
1893,31892,3,1,8,9,2
1894,08653,0,8,6,5,3
1895,25444,2,5,4,4,4
1896,08669,0,8,6,6,9
1897,13515,1,3,5,1,5
1898,52761,5,2,7,6,1
1899,12515,1,2,5,1,5
1900,26285,2,6,2,8,5
1901,30565,3,0,5,6,5
1902,28038,2,8,0,3,8
1903,20297,2,0,2,9,7
1904,15162,1,5,1,6,2
1905,32865,3,2,8,6,5
1906,34746,3,4,7,4,6
1907,02048,0,2,0,4,8
1908,35819,3,5,8,1,9
1909,24056,2,4,0,5,6
1910,22101,2,2,1,0,1
1911,03884,0,3,8,8,4
1912,10644,1,0,6,4,4
1913,18073,1,8,0,7,3
1914,50047,5,0,0,4,7
1915,48685,4,8,6,8,5
1916,19158,1,9,1,5,8
1917,02091,0,2,0,9,1
1918,05605,0,5,6,0,5
1919,53452,5,3,4,5,2
1920,09053,0,9,0,5,3
1921,28876,2,8,8,7,6
1922,46460,4,6,4,6,0
1923,18398,1,8,3,9,8
1924,15770,1,5,7,7,0
1925,11519,1,1,5,1,9
1926,17229,1,7,2,2,9
1927,10123,1,0,1,2,3
1928,06692,0,6,6,9,2
1929,53453,5,3,4,5,3
1930,24630,2,4,6,3,0
1931,24717,2,4,7,1,7
1932,29757,2,9,7,5,7
1933,07139,0,7,1,3,9
1934,02686,0,2,6,8,6
1935,25888,2,5,8,8,8
1936,05287,0,5,2,8,7
1937,01165,0,1,1,6,5
1938,22655,2,2,6,5,5
1938,36758,3,6,7,5,8
1939,13093,1,3,0,9,3
1940,43944,4,3,9,4,4
1941,58856,5,8,8,5,6
1942,09029,0,9,0,2,9
1943,34545,3,4,5,4,5
1944,33037,3,3,0,3,7
1945,42587,4,2,5,8,7
1946,45590,4,5,5,9,0
1947,35920,3,5,9,2,0
1948,26664,2,6,6,6,4
1949,55666,5,5,6,6,6
1950,45749,4,5,7,4,9
1951,02704,0,2,7,0,4
1952,25766,2,5,7,6,6
1953,03270,0,3,2,7,0
1954,53584,5,3,5,8,4
1955,50580,5,0,5,8,0
1956,15640,1,5,6,4,0
1957,53414,5,3,4,1,4
1958,33704,3,3,7,0,4
1959,36600,3,6,6,0,0
1960,02365,0,2,3,6,5
1961,24964,2,4,9,6,4
1962,00675,0,0,6,7,5
1963,19936,1,9,9,3,6
1964,20426,2,0,4,2,6
1965,49873,4,9,8,7,3
1966,48677,4,8,6,7,7
1967,43758,4,3,7,5,8
1968,57150,5,7,1,5,0
1969,59536,5,9,5,3,6
1970,19381,1,9,3,8,1
1971,23238,2,3,2,3,8
1972,42435,4,2,4,3,5
1973,34739,3,4,7,3,9
1974,12176,1,2,1,7,6
1975,47107,4,7,1,0,7
1976,49764,4,9,7,6,4
1977,34571,3,4,5,7,1
1978,15640,1,5,6,4,0
1979,40286,4,0,2,8,6
1980,60076,6,0,0,7,6
1981,23786,2,3,7,8,6
1982,21515,2,1,5,1,5
1983,53288,5,3,2,8,8
1984,50076,5,0,0,7,6
1985,63369,6,3,3,6,9
1986,03772,0,3,7,7,2
1987,20064,2,0,0,6,4
1988,21583,2,1,5,8,3
1989,61714,6,1,7,1,4
1990,32522,3,2,5,2,2
1991,47996,4,7,9,9,6
1992,31466,3,1,4,6,6
1993,47884,4,7,8,8,4
1994,49595,4,9,5,9,5
1995,45495,4,5,4,9,5
1996,56169,5,6,1,6,9
1997,43728,4,3,7,2,8
1998,21856,2,1,8,5,6
1999,65379,6,5,3,7,9
2000,49740,4,9,7,4,0
2001,18795,1,8,7,9,5
2002,08103,0,8,1,0,3
2003,42473,4,2,4,7,3
2004,54600,5,4,6,0,0
2005,20085,2,0,0,8,5
2006,20297,2,0,2,9,7
2007,06381,0,6,3,8,1
2008,32365,3,2,3,6,5
2009,78294,7,8,2,9,4
2010,79250,7,9,2,5,0
2011,58268,5,8,2,6,8
2012,76058,7,6,0,5,8
2013,62246,6,2,2,4,6
2014,13437,1,3,4,3,7
2015,79140,7,9,1,4,0
2016,66513,6,6,5,1,3
2017,71198,7,1,1,9,8
2018,03347,0,3,3,4,7
2019,26590,2,6,5,9,0
